RISCV/tb.vcd
$date
	Wed May  7 22:46:20 2025
$end
$version
	Icarus Verilog
$end
$timescale
	1ps
$end
$scope module tb $end
$var wire 32 ! X0 [31:0] $end
$var wire 32 " a0 [31:0] $end
$var wire 32 # a1 [31:0] $end
$var wire 32 $ a2 [31:0] $end
$var wire 32 % a3 [31:0] $end
$var wire 32 & a4 [31:0] $end
$var wire 32 ' a5 [31:0] $end
$var wire 32 ( a6 [31:0] $end
$var wire 32 ) a7 [31:0] $end
$var wire 32 * gp [31:0] $end
$var wire 32 + ra [31:0] $end
$var wire 32 , s0 [31:0] $end
$var wire 32 - s1 [31:0] $end
$var wire 32 . s10 [31:0] $end
$var wire 32 / s11 [31:0] $end
$var wire 32 0 s2 [31:0] $end
$var wire 32 1 s3 [31:0] $end
$var wire 32 2 s4 [31:0] $end
$var wire 32 3 s5 [31:0] $end
$var wire 32 4 s6 [31:0] $end
$var wire 32 5 s7 [31:0] $end
$var wire 32 6 s8 [31:0] $end
$var wire 32 7 s9 [31:0] $end
$var wire 32 8 sp [31:0] $end
$var wire 32 9 t0 [31:0] $end
$var wire 32 : t1 [31:0] $end
$var wire 32 ; t2 [31:0] $end
$var wire 32 < t3 [31:0] $end
$var wire 32 = t4 [31:0] $end
$var wire 32 > t5 [31:0] $end
$var wire 32 ? t6 [31:0] $end
$var wire 32 @ tp [31:0] $end
$var reg 1 A clk $end
$var reg 1 B reset $end
$scope module riscv_DUT $end
$var wire 1 C AndOut $end
$var wire 1 D PCSrcE $end
$var wire 32 E SrcAE [31:0] $end
$var wire 32 F WriteDataE [31:0] $end
$var wire 1 A clk $end
$var wire 1 B reset $end
$var wire 1 G ZeroE $end
$var wire 32 H WriteDataM [31:0] $end
$var wire 101 I WriteBackOutData [100:0] $end
$var wire 3 J WriteBackOutControl [2:0] $end
$var wire 101 K WriteBackInData [100:0] $end
$var wire 3 L WriteBackInControl [2:0] $end
$var wire 1 M StallF $end
$var wire 1 N StallD $end
$var wire 32 O SrcBE [31:0] $end
$var wire 5 P Rs2E [4:0] $end
$var wire 5 Q Rs2D [4:0] $end
$var wire 5 R Rs1E [4:0] $end
$var wire 5 S Rs1D [4:0] $end
$var wire 32 T ResultW [31:0] $end
$var wire 2 U ResultSrcW [1:0] $end
$var wire 2 V ResultSrcM [1:0] $end
$var wire 2 W ResultSrcE [1:0] $end
$var wire 2 X ResultSrcD [1:0] $end
$var wire 1 Y RegWriteW $end
$var wire 1 Z RegWriteM $end
$var wire 1 [ RegWriteE $end
$var wire 1 \ RegWriteD $end
$var wire 32 ] ReadDataW [31:0] $end
$var wire 32 ^ ReadDataM [31:0] $end
$var wire 5 _ RdW [4:0] $end
$var wire 5 ` RdM [4:0] $end
$var wire 5 a RdE [4:0] $end
$var wire 5 b RdD [4:0] $end
$var wire 32 c RD2E [31:0] $end
$var wire 32 d RD2D [31:0] $end
$var wire 32 e RD1E [31:0] $end
$var wire 32 f RD1D [31:0] $end
$var wire 32 g PCTargetE [31:0] $end
$var wire 32 h PCPlus4W [31:0] $end
$var wire 32 i PCPlus4M [31:0] $end
$var wire 32 j PCPlus4F [31:0] $end
$var wire 32 k PCPlus4E [31:0] $end
$var wire 32 l PCPlus4D [31:0] $end
$var wire 32 m PCFF [31:0] $end
$var wire 32 n PCF [31:0] $end
$var wire 32 o PCE [31:0] $end
$var wire 32 p PCD [31:0] $end
$var wire 101 q MemoryOutData [100:0] $end
$var wire 4 r MemoryOutControl [3:0] $end
$var wire 101 s MemoryInData [100:0] $end
$var wire 4 t MemoryInControl [3:0] $end
$var wire 1 u MemWriteM $end
$var wire 1 v MemWriteE $end
$var wire 1 w MemWriteD $end
$var wire 1 x JumpE $end
$var wire 1 y JumpD $end
$var wire 32 z InstrF [31:0] $end
$var wire 32 { InstrD [31:0] $end
$var wire 2 | ImmSrcD [1:0] $end
$var wire 32 } ImmExtE [31:0] $end
$var wire 32 ~ ImmExtD [31:0] $end
$var wire 2 !" ForwardBE [1:0] $end
$var wire 32 "" ForwardB [31:0] $end
$var wire 2 #" ForwardAE [1:0] $end
$var wire 32 $" ForwardA [31:0] $end
$var wire 1 %" FlushE $end
$var wire 1 &" FlushD $end
$var wire 175 '" ExecuteOutData [174:0] $end
$var wire 11 (" ExecuteOutControl [10:0] $end
$var wire 175 )" ExecuteInData [174:0] $end
$var wire 11 *" ExecuteInControl [10:0] $end
$var wire 96 +" DecodeOutData [95:0] $end
$var wire 96 ," DecodeInData [95:0] $end
$var wire 1 -" BranchE $end
$var wire 1 ." BranchD $end
$var wire 1 /" ALUSrcE $end
$var wire 1 0" ALUSrcD $end
$var wire 32 1" ALUResultW [31:0] $end
$var wire 32 2" ALUResultM [31:0] $end
$var wire 32 3" ALUResultE [31:0] $end
$var wire 4 4" ALUCtlE [3:0] $end
$var wire 4 5" ALUCtlD [3:0] $end
$var parameter 32 6" WIDHT $end
$scope module ALU $end
$var wire 4 7" ALUCtl [3:0] $end
$var wire 32 8" ALUResult [31:0] $end
$var wire 32 9" SrcA [31:0] $end
$var wire 1 G Zero $end
$var wire 32 :" SrcB [31:0] $end
$var parameter 32 ;" ADD $end
$var parameter 32 <" AND $end
$var parameter 32 =" BGE $end
$var parameter 32 >" BGEU $end
$var parameter 32 ?" BLT $end
$var parameter 32 @" BLTU $end
$var parameter 32 A" BNE $end
$var parameter 32 B" OR $end
$var parameter 32 C" SLL $end
$var parameter 32 D" SLT $end
$var parameter 32 E" SLTU $end
$var parameter 32 F" SRA $end
$var parameter 32 G" SRL $end
$var parameter 32 H" SUB $end
$var parameter 32 I" WIDTH $end
$var parameter 32 J" XOR $end
$var reg 32 K" temp [31:0] $end
$upscope $end
$scope module Adder_PCPlus4 $end
$var wire 32 L" SrcB [31:0] $end
$var wire 32 M" SrcA [31:0] $end
$var wire 32 N" Result [31:0] $end
$var parameter 32 O" WIDTH $end
$upscope $end
$scope module Adder_PCPlus4E $end
$var wire 32 P" SrcA [31:0] $end
$var wire 32 Q" SrcB [31:0] $end
$var wire 32 R" Result [31:0] $end
$var parameter 32 S" WIDTH $end
$upscope $end
$scope module ControlUnit $end
$var wire 3 T" func3 [2:0] $end
$var wire 1 U" func7_5 $end
$var wire 7 V" opcode [6:0] $end
$var wire 2 W" ResultSrc [1:0] $end
$var wire 1 \ RegWrite $end
$var wire 1 w MemWrite $end
$var wire 1 y Jump $end
$var wire 2 X" ImmSrc [1:0] $end
$var wire 1 ." Branch $end
$var wire 1 0" ALUSrc $end
$var wire 2 Y" ALUOp [1:0] $end
$var wire 4 Z" ALUCtl [3:0] $end
$scope module ALUDecoder $end
$var wire 3 [" func3 [2:0] $end
$var wire 1 U" func7_5 $end
$var wire 1 \" opcode_5 $end
$var wire 2 ]" ALUOp [1:0] $end
$var wire 4 ^" ALUCtl [3:0] $end
$var parameter 32 _" ADD $end
$var parameter 32 `" AND $end
$var parameter 32 a" BGE $end
$var parameter 32 b" BGEU $end
$var parameter 32 c" BLT $end
$var parameter 32 d" BLTU $end
$var parameter 32 e" BNE $end
$var parameter 32 f" Branch_Type $end
$var parameter 32 g" IR_Type $end
$var parameter 32 h" Load_Store_Type $end
$var parameter 32 i" OR $end
$var parameter 32 j" SLL $end
$var parameter 32 k" SLT $end
$var parameter 32 l" SLTU $end
$var parameter 32 m" SRA $end
$var parameter 32 n" SRL $end
$var parameter 32 o" SUB $end
$var parameter 32 p" XOR $end
$var reg 4 q" temp [3:0] $end
$upscope $end
$scope module MainDecoder $end
$var wire 7 r" opcode [6:0] $end
$var parameter 32 s" B_Type $end
$var parameter 32 t" BranchInst $end
$var parameter 32 u" Branch_Type $end
$var parameter 32 v" IR_Type $end
$var parameter 32 w" I_Type $end
$var parameter 32 x" I_TypeInst $end
$var parameter 32 y" J_Type $end
$var parameter 32 z" J_TypeInst $end
$var parameter 32 {" LoadInst $end
$var parameter 32 |" Load_Store_Type $end
$var parameter 32 }" R_TypeInst $end
$var parameter 32 ~" S_Type $end
$var parameter 32 !# StoreInst $end
$var reg 2 "# ALUOp [1:0] $end
$var reg 1 0" ALUSrc $end
$var reg 1 ." Branch $end
$var reg 2 ## ImmSrc [1:0] $end
$var reg 1 y Jump $end
$var reg 1 w MemWrite $end
$var reg 1 \ RegWrite $end
$var reg 2 $# ResultSrc [1:0] $end
$upscope $end
$upscope $end
$scope module DataMemory $end
$var wire 32 %# A [31:0] $end
$var wire 1 A CLK $end
$var wire 32 &# WD [31:0] $end
$var wire 1 u WE $end
$var wire 32 '# RD [31:0] $end
$var parameter 32 (# Width $end
$upscope $end
$scope module Decode $end
$var wire 1 A clk $end
$var wire 96 )# d [95:0] $end
$var wire 1 B rst $end
$var wire 1 &" clr $end
$var wire 1 N Enable $end
$var parameter 32 *# WIDTH $end
$var reg 96 +# q [95:0] $end
$upscope $end
$scope module Execute $end
$var wire 1 A clk $end
$var wire 186 ,# d [185:0] $end
$var wire 1 B rst $end
$var wire 1 %" clr $end
$var parameter 32 -# WIDTH $end
$var reg 186 .# q [185:0] $end
$upscope $end
$scope module FA $end
$var wire 32 /# A [31:0] $end
$var wire 32 0# C [31:0] $end
$var wire 32 1# Y [31:0] $end
$var wire 2 2# S [1:0] $end
$var wire 32 3# B [31:0] $end
$var parameter 32 4# WIDTH $end
$var reg 32 5# temp [31:0] $end
$upscope $end
$scope module FB $end
$var wire 32 6# A [31:0] $end
$var wire 32 7# C [31:0] $end
$var wire 32 8# Y [31:0] $end
$var wire 2 9# S [1:0] $end
$var wire 32 :# B [31:0] $end
$var parameter 32 ;# WIDTH $end
$var reg 32 <# temp [31:0] $end
$upscope $end
$scope module HazardUnit $end
$var wire 1 &" FlushD $end
$var wire 1 %" FlushE $end
$var wire 1 D PCSrcE $end
$var wire 5 =# RdE [4:0] $end
$var wire 5 ># RdM [4:0] $end
$var wire 5 ?# RdW [4:0] $end
$var wire 1 Z RegWriteM $end
$var wire 1 Y RegWriteW $end
$var wire 2 @# ResultSrcE [1:0] $end
$var wire 5 A# Rs1D [4:0] $end
$var wire 5 B# Rs1E [4:0] $end
$var wire 5 C# Rs2D [4:0] $end
$var wire 5 D# Rs2E [4:0] $end
$var wire 1 M StallF $end
$var wire 1 N StallD $end
$var wire 2 E# ForwardBE [1:0] $end
$var wire 2 F# ForwardAE [1:0] $end
$var wire 1 G# FlushElw $end
$scope module ForwardingLogic $end
$var wire 2 H# ForwardAE [1:0] $end
$var wire 2 I# ForwardBE [1:0] $end
$var wire 5 J# RdM [4:0] $end
$var wire 5 K# RdW [4:0] $end
$var wire 1 Z RegWriteM $end
$var wire 1 Y RegWriteW $end
$var wire 5 L# Rs1E [4:0] $end
$var wire 5 M# Rs2E [4:0] $end
$var reg 2 N# tempA [1:0] $end
$var reg 2 O# tempB [1:0] $end
$upscope $end
$scope module lwStall $end
$var wire 1 G# FlushE $end
$var wire 5 P# RdE [4:0] $end
$var wire 2 Q# ResultSrcE [1:0] $end
$var wire 5 R# Rs1D [4:0] $end
$var wire 5 S# Rs2D [4:0] $end
$var wire 1 N StallD $end
$var wire 1 M StallF $end
$var reg 1 T# templw $end
$upscope $end
$upscope $end
$scope module ImmExtnd $end
$var wire 2 U# InstType [1:0] $end
$var wire 25 V# Instr [31:7] $end
$var parameter 32 W# B_Type $end
$var parameter 32 X# I_Type $end
$var parameter 32 Y# J_Type $end
$var parameter 32 Z# S_Type $end
$var reg 32 [# ImmExt [31:0] $end
$upscope $end
$scope module InstructionMemory $end
$var wire 32 \# readAddr [31:0] $end
$var wire 32 ]# inst [31:0] $end
$var integer 32 ^# i [31:0] $end
$upscope $end
$scope module Memory $end
$var wire 1 A clk $end
$var wire 105 _# d [104:0] $end
$var wire 1 B rst $end
$var parameter 32 `# WIDTH $end
$var reg 105 a# q [104:0] $end
$upscope $end
$scope module Mux2x1_ALUSrc $end
$var wire 32 b# A [31:0] $end
$var wire 32 c# B [31:0] $end
$var wire 1 /" S $end
$var wire 32 d# Y [31:0] $end
$var parameter 32 e# WIDTH $end
$upscope $end
$scope module Mux2x1_PC $end
$var wire 32 f# A [31:0] $end
$var wire 32 g# B [31:0] $end
$var wire 1 D S $end
$var wire 32 h# Y [31:0] $end
$var parameter 32 i# WIDTH $end
$upscope $end
$scope module Mux3x1_ResultSrc $end
$var wire 32 j# A [31:0] $end
$var wire 32 k# B [31:0] $end
$var wire 32 l# C [31:0] $end
$var wire 2 m# S [1:0] $end
$var wire 32 n# Y [31:0] $end
$var parameter 32 o# WIDTH $end
$var reg 32 p# temp [31:0] $end
$upscope $end
$scope module ProgramCounter $end
$var wire 1 M Enable $end
$var wire 1 A clk $end
$var wire 32 q# pc_in [31:0] $end
$var wire 1 B reset $end
$var wire 32 r# pc_out [31:0] $end
$var parameter 32 s# WIDTH $end
$var reg 32 t# temp [31:0] $end
$upscope $end
$scope module RegisterFile $end
$var wire 5 u# A1 [4:0] $end
$var wire 5 v# A2 [4:0] $end
$var wire 5 w# A3 [4:0] $end
$var wire 1 x# CLK $end
$var wire 32 y# WD3 [31:0] $end
$var wire 1 Y WE3 $end
$var wire 1 B reset $end
$var wire 32 z# RD2 [31:0] $end
$var wire 32 {# RD1 [31:0] $end
$var parameter 32 |# ADDR_WIDTH $end
$var parameter 32 }# DATA_WIDTH $end
$var integer 32 ~# i [31:0] $end
$upscope $end
$scope module WriteBack $end
$var wire 1 A clk $end
$var wire 104 !$ d [103:0] $end
$var wire 1 B rst $end
$var parameter 32 "$ WIDTH $end
$var reg 104 #$ q [103:0] $end
$upscope $end
$upscope $end
$upscope $end
$enddefinitions $end
$comment Show the parameter values. $end
$dumpall
b1101000 "$
b100000 }#
b101 |#
b100000 s#
b100000 o#
b100000 i#
b100000 e#
b1101001 `#
b1 Z#
b11 Y#
b0 X#
b10 W#
b100000 ;#
b100000 4#
b10111010 -#
b1100000 *#
b100000 (#
b100011 !#
b1 ~"
b110011 }"
b0 |"
b11 {"
b1101111 z"
b11 y"
b10011 x"
b0 w"
b10 v"
b1 u"
b1100011 t"
b10 s"
b101 p"
b1 o"
b110 n"
b111 m"
b100 l"
b11 k"
b10 j"
b1000 i"
b0 h"
b10 g"
b1 f"
b1010 e"
b1101 d"
b1011 c"
b1110 b"
b1100 a"
b1001 `"
b0 _"
b100000 S"
b100000 O"
b101 J"
b100000 I"
b1 H"
b110 G"
b111 F"
b100 E"
b11 D"
b10 C"
b1000 B"
b1010 A"
b1101 @"
b1011 ?"
b1110 >"
b1100 ="
b1001 <"
b0 ;"
b100000 6"
$end
#0
$dumpvars
bx #$
bx !$
b100000 ~#
bx {#
bx z#
bx y#
1x#
bx w#
bx v#
bx u#
bx t#
bx r#
bx q#
bx p#
bx n#
bx m#
bx l#
bx k#
bx j#
bx h#
bx g#
bx f#
bx d#
bx c#
bx b#
bx a#
bx _#
b100000000 ^#
bx ]#
bx \#
bx [#
bx V#
bx U#
xT#
bx S#
bx R#
bx Q#
bx P#
bx O#
bx N#
bx M#
bx L#
bx K#
bx J#
bx I#
bx H#
xG#
bx F#
bx E#
bx D#
bx C#
bx B#
bx A#
bx @#
bx ?#
bx >#
bx =#
bx <#
bx :#
bx 9#
bx 8#
bx 7#
bx 6#
bx 5#
bx 3#
bx 2#
bx 1#
bx 0#
bx /#
bx .#
bx ,#
bx +#
bx )#
bx '#
bx &#
bx %#
bx $#
bx ##
bx "#
bx r"
bx q"
bx ^"
bx ]"
x\"
bx ["
bx Z"
bx Y"
bx X"
bx W"
bx V"
xU"
bx T"
bx R"
bx Q"
bx P"
bx N"
bx M"
b100 L"
bx K"
bx :"
bx 9"
bx 8"
bx 7"
bx 5"
bx 4"
bx 3"
bx 2"
bx 1"
x0"
x/"
x."
x-"
bx ,"
bx +"
bx *"
bx )"
bx ("
bx '"
x&"
x%"
bx $"
bx #"
bx ""
bx !"
bx ~
bx }
bx |
bx {
bx z
xy
xx
xw
xv
xu
bx t
bx s
bx r
bx q
bx p
bx o
bx n
bx m
bx l
bx k
bx j
bx i
bx h
bx g
bx f
bx e
bx d
bx c
bx b
bx a
bx `
bx _
bx ^
bx ]
x\
x[
xZ
xY
bx X
bx W
bx V
bx U
bx T
bx S
bx R
bx Q
bx P
bx O
xN
xM
bx L
bx K
bx J
bx I
bx H
xG
bx F
bx E
xD
xC
1B
0A
b0 @
b0 ?
b0 >
b0 =
b0 <
b0 ;
b0 :
b0 9
b0 8
b0 7
b0 6
b0 5
b0 4
b0 3
b0 2
b0 1
b0 0
b0 /
b0 .
b0 -
b0 ,
b0 +
b0 *
b0 )
b0 (
b0 '
b0 &
b0 %
b0 $
b0 #
b0 "
b0 !
$end
#1000
0%"
0\"
b0 X
b0 W"
b0 $#
b0 |
b0 X"
b0 ##
b0 U#
b0 Y"
b0 ]"
b0 "#
0."
0y
0w
00"
0\
b0 *"
b0 5"
b0 Z"
b0 ^"
b0 q"
b0 f
b0 {#
b0 d
b0 z#
b0 ~
b0 [#
b100 m
b100 h#
b100 q#
0G#
0N
0M
0T#
0&"
0D
0C
1G
b0 3"
b0 8"
b0 K"
b0 O
b0 :"
b0 d#
b0 E
b0 9"
b0 $"
b0 1#
b0 5#
b0 F
b0 ""
b0 8#
b0 <#
b0 b#
b0 !"
b0 9#
b0 E#
b0 I#
b0 O#
b0 #"
b0 2#
b0 F#
b0 H#
b0 N#
b0 T
b0 3#
b0 :#
b0 n#
b0 y#
b0 p#
b0 S
b0 A#
b0 R#
b0 Q
b0 C#
b0 S#
b0 V"
b0 r"
b0 T"
b0 ["
0U"
b0 u#
b0 v#
b0 V#
b0 b
b0 e
b0 /#
b0 c
b0 6#
b0 g
b0 R"
b0 g#
b0 o
b0 P"
b0 R
b0 B#
b0 L#
b0 P
b0 D#
b0 M#
b0 a
b0 =#
b0 P#
b0 }
b0 Q"
b0 c#
b0 s
b0 k
0[
b0 W
b0 @#
b0 Q#
b0 _#
b0 t
0v
0x
0-"
b0 4"
b0 7"
0/"
b0 2"
b0 %#
b0 0#
b0 7#
b0 H
b0 &#
b0 `
b0 >#
b0 J#
b0xxxxxxxxxxxxxxxxxxxxxxxxxxxxxxxx0000000000000000000000000000000000000 K
b0 i
0Z
b0xxxxxxxxxxxxxxxxxxxxxxxxxxxxxxxx0000000000000000000000000000000000000 !$
b0 L
b0 V
0u
b0 1"
b0 j#
b0 ]
b0 k#
b0 _
b0 ?#
b0 K#
b0 w#
b0 h
b0 l#
0Y
b0 U
b0 m#
b110100000000010100010011 z
b110100000000010100010011 ]#
b0 {
b0 p
b0 ,#
b0 )"
b0 l
b0 '"
b0 ("
b0 q
b0 r
b0 I
b0 J
b100 j
b100 N"
b100 f#
b1101000000000101000100110000000000000000000000000000000000000000000000000000000000000100 ,"
b1101000000000101000100110000000000000000000000000000000000000000000000000000000000000100 )#
b0 n
b0 M"
b0 \#
b0 r#
b0 t#
b0 +"
b0 +#
b0 .#
b0 a#
b0 #$
0x#
1A
#2000
b100000 ~#
1x#
0A
#3000
0x#
1A
#4000
b100000 ~#
1x#
0A
#5000
1\
b10000000001 *"
10"
b10 Y"
b10 ]"
b10 "#
b1101 ~
b1101 [#
b1101 Q
b1101 C#
b1101 S#
b10011 V"
b10011 r"
b1101 v#
b11010000000001010 V#
b1010 b
bx ]
bx k#
b10100000000010110010011 z
b10100000000010110010011 ]#
b1000 m
b1000 h#
b1000 q#
b110100000000010100010011 {
b100000000010000000000000000000000000000000000000000000000000000000000000000000000000000000000000000000000000000001101010100000000000000000000000000000110100000000000000000000000000000100 ,#
b1101010100000000000000000000000000000110100000000000000000000000000000100 )"
b100 l
b0xxxxxxxxxxxxxxxxxxxxxxxxxxxxxxxx0000000000000000000000000000000000000 I
b1000 j
b1000 N"
b1000 f#
b101000000000101100100110000000000000000000000000000010000000000000000000000000000001000 ,"
b101000000000101100100110000000000000000000000000000010000000000000000000000000000001000 )#
b100 n
b100 M"
b100 \#
b100 r#
b100 t#
b1101000000000101000100110000000000000000000000000000000000000000000000000000000000000100 +"
b1101000000000101000100110000000000000000000000000000000000000000000000000000000000000100 +#
b0xxxxxxxxxxxxxxxxxxxxxxxxxxxxxxxx0000000000000000000000000000000000000 #$
0x#
1A
0B
#6000
1x#
0A
#7000
0G
b1101 3"
b1101 8"
b1101 K"
b1101 O
b1101 :"
b1101 d#
b101 ~
b101 [#
b1101 P
b1101 D#
b1101 M#
b1010 a
b1010 =#
b1010 P#
b1101 g
b1101 R"
b1101 g#
b1101 }
b1101 Q"
b1101 c#
b1101000000000000000000000000000000000101000000000000000000000000000000100 s
b100 k
b100000000000000000000000000000001101000000000000000000000000000000000101000000000000000000000000000000100 _#
b1000 t
1[
1/"
b101 Q
b101 C#
b101 S#
b101 v#
b1010000000001011 V#
b1011 b
b1101010100000000000000000000000000000110100000000000000000000000000000100 '"
b10000000001 ("
b10100000000010110010011 {
b100 p
b100000000010000000000000000000000000000000000000000000000000000000000000000000000000000000000000000000001000000000101010110000000000000000000000000000010100000000000000000000000000001000 ,#
b1000000000101010110000000000000000000000000000010100000000000000000000000000001000 )"
b1000 l
b11000000000011000010011 z
b11000000000011000010011 ]#
b1100 m
b1100 h#
b1100 q#
b100000000010000000000000000000000000000000000000000000000000000000000000000000000000000000000000000000000000000001101010100000000000000000000000000000110100000000000000000000000000000100 .#
b101000000000101100100110000000000000000000000000000010000000000000000000000000000001000 +"
b101000000000101100100110000000000000000000000000000010000000000000000000000000000001000 +#
b1100 j
b1100 N"
b1100 f#
b110000000000110000100110000000000000000000000000000100000000000000000000000000000001100 ,"
b110000000000110000100110000000000000000000000000000100000000000000000000000000000001100 )#
b1000 n
b1000 M"
b1000 \#
b1000 r#
b1000 t#
0x#
1A
#8000
1x#
0A
#9000
b101 3"
b101 8"
b101 K"
b110 ~
b110 [#
b101 O
b101 :"
b101 d#
b110 Q
b110 C#
b110 S#
b110 v#
b1100000000001100 V#
b1100 b
b100 o
b100 P"
b101 P
b101 D#
b101 M#
b1011 a
b1011 =#
b1011 P#
b1001 g
b1001 R"
b1001 g#
b101 }
b101 Q"
b101 c#
b100000000000000000000000000000000101000000000000000000000000000000000101100000000000000000000000000001000 _#
b101000000000000000000000000000000000101100000000000000000000000000001000 s
b1000 k
b1101 2"
b1101 %#
b1101 0#
b1101 7#
b1010 `
b1010 >#
b1010 J#
b1101xxxxxxxxxxxxxxxxxxxxxxxxxxxxxxxx0101000000000000000000000000000000100 K
b100 i
b10000000000000000000000000000001101xxxxxxxxxxxxxxxxxxxxxxxxxxxxxxxx0101000000000000000000000000000000100 !$
b100 L
1Z
b100100000000011010010011 z
b100100000000011010010011 ]#
b10000 m
b10000 h#
b10000 q#
b11000000000011000010011 {
b1000 p
b100000000010000000000000000000000000000000000000000000000000000000000000000000000000000000000000000000010000000000110011000000000000000000000000000000011000000000000000000000000000001100 ,#
b10000000000110011000000000000000000000000000000011000000000000000000000000000001100 )"
b1100 l
b1000000000101010110000000000000000000000000000010100000000000000000000000000001000 '"
b1101000000000000000000000000000000000101000000000000000000000000000000100 q
b1000 r
b10000 j
b10000 N"
b10000 f#
b1001000000000110100100110000000000000000000000000000110000000000000000000000000000010000 ,"
b1001000000000110100100110000000000000000000000000000110000000000000000000000000000010000 )#
b1100 n
b1100 M"
b1100 \#
b1100 r#
b1100 t#
b110000000000110000100110000000000000000000000000000100000000000000000000000000000001100 +"
b110000000000110000100110000000000000000000000000000100000000000000000000000000000001100 +#
b100000000010000000000000000000000000000000000000000000000000000000000000000000000000000000000000000000001000000000101010110000000000000000000000000000010100000000000000000000000000001000 .#
b100000000000000000000000000000001101000000000000000000000000000000000101000000000000000000000000000000100 a#
0x#
1A
#10000
1x#
0A
#11000
b110 3"
b110 8"
b110 K"
b1101 T
b1101 3#
b1101 :#
b1101 n#
b1101 y#
b1101 p#
b110 O
b110 :"
b110 d#
b1001 ~
b1001 [#
b1101 1"
b1101 j#
b1010 _
b1010 ?#
b1010 K#
b1010 w#
b100 h
b100 l#
1Y
b101 2"
b101 %#
b101 0#
b101 7#
b1011 `
b1011 >#
b1011 J#
b10000000000000000000000000000000101xxxxxxxxxxxxxxxxxxxxxxxxxxxxxxxx0101100000000000000000000000000001000 !$
b101xxxxxxxxxxxxxxxxxxxxxxxxxxxxxxxx0101100000000000000000000000000001000 K
b1000 i
b1000 o
b1000 P"
b110 P
b110 D#
b110 M#
b1100 a
b1100 =#
b1100 P#
b1110 g
b1110 R"
b1110 g#
b110 }
b110 Q"
b110 c#
b100000000000000000000000000000000110000000000000000000000000000000000110000000000000000000000000000001100 _#
b110000000000000000000000000000000000110000000000000000000000000000001100 s
b1100 k
b1001 Q
b1001 C#
b1001 S#
b1001 v#
b10010000000001101 V#
b1101 b
b1101xxxxxxxxxxxxxxxxxxxxxxxxxxxxxxxx0101000000000000000000000000000000100 I
b100 J
b101000000000000000000000000000000000101100000000000000000000000000001000 q
b10000000000110011000000000000000000000000000000011000000000000000000000000000001100 '"
b100100000000011010010011 {
b1100 p
b100000000010000000000000000000000000000000000000000000000000000000000000000000000000000000000000000000011000000001001011010000000000000000000000000000100100000000000000000000000000010000 ,#
b11000000001001011010000000000000000000000000000100100000000000000000000000000010000 )"
b10000 l
b110000000000011100010011 z
b110000000000011100010011 ]#
b10100 m
b10100 h#
b10100 q#
b10000000000000000000000000000001101xxxxxxxxxxxxxxxxxxxxxxxxxxxxxxxx0101000000000000000000000000000000100 #$
b100000000000000000000000000000000101000000000000000000000000000000000101100000000000000000000000000001000 a#
b100000000010000000000000000000000000000000000000000000000000000000000000000000000000000000000000000000010000000000110011000000000000000000000000000000011000000000000000000000000000001100 .#
b1001000000000110100100110000000000000000000000000000110000000000000000000000000000010000 +"
b1001000000000110100100110000000000000000000000000000110000000000000000000000000000010000 +#
b10100 j
b10100 N"
b10100 f#
b1100000000000111000100110000000000000000000000000001000000000000000000000000000000010100 ,"
b1100000000000111000100110000000000000000000000000001000000000000000000000000000000010100 )#
b10000 n
b10000 M"
b10000 \#
b10000 r#
b10000 t#
0x#
1A
#12000
b1101 "
1x#
0A
#13000
b1001 3"
b1001 8"
b1001 K"
b1100 ~
b1100 [#
b1001 O
b1001 :"
b1001 d#
b101 T
b101 3#
b101 :#
b101 n#
b101 y#
b101 p#
b1100 Q
b1100 C#
b1100 S#
b1100 v#
b11000000000001110 V#
b1110 b
b1100 o
b1100 P"
b1001 P
b1001 D#
b1001 M#
b1101 a
b1101 =#
b1101 P#
b10101 g
b10101 R"
b10101 g#
b1001 }
b1001 Q"
b1001 c#
b100000000000000000000000000000001001000000000000000000000000000000000110100000000000000000000000000010000 _#
b1001000000000000000000000000000000000110100000000000000000000000000010000 s
b10000 k
b110 2"
b110 %#
b110 0#
b110 7#
b1100 `
b1100 >#
b1100 J#
b10000000000000000000000000000000110xxxxxxxxxxxxxxxxxxxxxxxxxxxxxxxx0110000000000000000000000000000001100 !$
b110xxxxxxxxxxxxxxxxxxxxxxxxxxxxxxxx0110000000000000000000000000000001100 K
b1100 i
b101 1"
b101 j#
b1011 _
b1011 ?#
b1011 K#
b1011 w#
b1000 h
b1000 l#
b11110010011 z
b11110010011 ]#
b11000 m
b11000 h#
b11000 q#
b110000000000011100010011 {
b10000 p
b100000000010000000000000000000000000000000000000000000000000000000000000000000000000000000000000000000100000000001100011100000000000000000000000000000110000000000000000000000000000010100 ,#
b100000000001100011100000000000000000000000000000110000000000000000000000000000010100 )"
b10100 l
b11000000001001011010000000000000000000000000000100100000000000000000000000000010000 '"
b110000000000000000000000000000000000110000000000000000000000000000001100 q
b101xxxxxxxxxxxxxxxxxxxxxxxxxxxxxxxx0101100000000000000000000000000001000 I
b11000 j
b11000 N"
b11000 f#
b111100100110000000000000000000000000001010000000000000000000000000000011000 ,"
b111100100110000000000000000000000000001010000000000000000000000000000011000 )#
b10100 n
b10100 M"
b10100 \#
b10100 r#
b10100 t#
b1100000000000111000100110000000000000000000000000001000000000000000000000000000000010100 +"
b1100000000000111000100110000000000000000000000000001000000000000000000000000000000010100 +#
b100000000010000000000000000000000000000000000000000000000000000000000000000000000000000000000000000000011000000001001011010000000000000000000000000000100100000000000000000000000000010000 .#
b100000000000000000000000000000000110000000000000000000000000000000000110000000000000000000000000000001100 a#
b10000000000000000000000000000000101xxxxxxxxxxxxxxxxxxxxxxxxxxxxxxxx0101100000000000000000000000000001000 #$
0x#
1A
#14000
b101 #
1x#
0A
